6 Data Wrangling – Getting Started with R for Economists
…
 Arrival Airport     Pilot Name        Flight Status     
 Length:98619       Length:98619       Length:98619      
 Class :character   Class :character   Class :character  
 Mode  :character   Mode  :character   Mode  :character  

6.2.1.1 filter: Select specific rows based on conditions

Takes logical expressions and returns the rows for which all are TRUE.

filter(data, Age > 45)

# A tibble: 49,383 × 15
   `Passenger ID` `First Name` `Last Name` Gender   Age Nationality
   <chr>          <chr>        <chr>       <chr>  <dbl> <chr>      
 1 ABVWIg         Edithe       Leggis      Female    62 Japan      
 2 jkXXAX         Elwood       Catt        Male      62 Nicaragua  
 3 CdUz2g         Darby        Felgate     Male      67 Russia     
 4 BRS38V         Dominica     Pyle        Female    71 China      
 5 nMJKVh         Lora         Durbann     Female    55 Brazil     
 6 8IPFPE         Rand         Bram        Male      73 Ivory Coast
 7 sBf524         Briant       De La Haye  Male      71 Russia     
 8 PlwJZT         Kalie        Scoble      Female    47 Sweden     
 9 iU75x3         Catriona     Beaument    Female    77 Russia     
10 e0H5LI         Jerrine      Peeters     Female    87 Philippines
# ℹ 49,373 more rows
# ℹ 9 more variables: `Airport Name` <chr>, `Airport Country Code` <chr>,
#   `Country Name` <chr>, `Airport Continent` <chr>, Continents <chr>,
#   `Departure Date` <chr>, `Arrival Airport` <chr>, `Pilot Name` <chr>,
#   `Flight Status` <chr>

filter(data,  Nationality == "Sri Lanka")

# A tibble: 138 × 15
   `Passenger ID` `First Name` `Last Name` Gender   Age Nationality
   <chr>          <chr>        <chr>       <chr>  <dbl> <chr>      
 1 fhD57Z         Jordan       Fierman     Female    11 Sri Lanka  
 2 5joYmi         Valdemar     Marcone     Male       7 Sri Lanka  
 3 2ROpnA         Jordon       Sallowaye   Male      43 Sri Lanka  
 4 eKkekT         Dael         Edlestone   Female    58 Sri Lanka  
 5 5TxM24         Hiram        Memory      Male      21 Sri Lanka  
 6 wQVX9G         Sherm        Kippie      Male      60 Sri Lanka  
 7 fKtiLJ         Filippa      Prestige    Female    53 Sri Lanka  
 8 q7uPji         Wainwright   Dunkerton   Male      47 Sri Lanka  
 9 Tn9LGe         Matty        Alflat      Male       6 Sri Lanka  
10 fZsoAD         Rowney       Messitt     Male      43 Sri Lanka  
# ℹ 128 more rows
# ℹ 9 more variables: `Airport Name` <chr>, `Airport Country Code` <chr>,
#   `Country Name` <chr>, `Airport Continent` <chr>, Continents <chr>,
#   `Departure Date` <chr>, `Arrival Airport` <chr>, `Pilot Name` <chr>,
#   `Flight Status` <chr>

6.2.1.2 select: Choose specific columns by their names.

select(data, `Passenger ID`:Gender)

# A tibble: 98,619 × 4
   `Passenger ID` `First Name` `Last Name` Gender
   <chr>          <chr>        <chr>       <chr> 
 1 ABVWIg         Edithe       Leggis      Female
 2 jkXXAX         Elwood       Catt        Male  
 3 CdUz2g         Darby        Felgate     Male  
 4 BRS38V         Dominica     Pyle        Female
 5 9kvTLo         Bay          Pencost     Male  
 6 nMJKVh         Lora         Durbann     Female
 7 8IPFPE         Rand         Bram        Male  
 8 pqixbY         Perceval     Dallosso    Male  
 9 QNAs2R         Aleda        Pigram      Female
10 3jmudz         Burlie       Schustl     Male  
# ℹ 98,609 more rows

select(data, `Pilot Name`, `Flight Status`)

# A tibble: 98,619 × 2
   `Pilot Name`        `Flight Status`
   <chr>               <chr>          
 1 Fransisco Hazeldine On Time        
 2 Marla Parsonage     On Time        
 3 Rhonda Amber        On Time        
 4 Kacie Commucci      Delayed        
 5 Ebonee Tree         On Time        
 6 Inglis Dolley       On Time        
 7 Stanislas Tiffin    Cancelled      
 8 Sharyl Eastmead     Cancelled      
 9 Daryn Bardsley      On Time        
10 Alameda Carlyle     On Time        
# ℹ 98,609 more rows

When you pass a vector of column names with -c(), it omits the specified columns and returns the dataframe with the remaining columns. This option is very useful when working with large datasets that have many columns, and you only need to remove a few columns to finalize the dataset.

select(data, -c(`Passenger ID`, `First Name`, `Last Name`))

# A tibble: 98,619 × 12
   Gender   Age Nationality `Airport Name` `Airport Country Code` `Country Name`
   <chr>  <dbl> <chr>       <chr>          <chr>                  <chr>         
 1 Female    62 Japan       Coldfoot Airp… US                     United States 
 2 Male      62 Nicaragua   Kugluktuk Air… CA                     Canada        
 3 Male      67 Russia      Grenoble-Isèr… FR                     France        
 4 Female    71 China       Ottawa / Gati… CA                     Canada        
 5 Male      21 China       Gillespie Fie… US                     United States 
 6 Female    55 Brazil      Coronel Horác… BR                     Brazil        
 7 Male      73 Ivory Coast Duxford Aerod… GB                     United Kingdom
 8 Male      36 Vietnam     Maestro Wilso… BR                     Brazil        
 9 Female    35 Palestinia… Venice Marco … IT                     Italy         
10 Male      13 Thailand    Vermilion Air… CA                     Canada        
# ℹ 98,609 more rows
# ℹ 6 more variables: `Airport Continent` <chr>, Continents <chr>,
#   `Departure Date` <chr>, `Arrival Airport` <chr>, `Pilot Name` <chr>,
#   `Flight Status` <chr>

6.2.1.3 mutate: Create or modify columns

This function allows you to creates new variables from an existing variable.

data_new <- data |> mutate(New_Age = Age + 2)
data_new

# A tibble: 98,619 × 16
   `Passenger ID` `First Name` `Last Name` Gender   Age Nationality          
   <chr>          <chr>        <chr>       <chr>  <dbl> <chr>                
 1 ABVWIg         Edithe       Leggis      Female    62 Japan                
 2 jkXXAX         Elwood       Catt        Male      62 Nicaragua            
 3 CdUz2g         Darby        Felgate     Male      67 Russia               
 4 BRS38V         Dominica     Pyle        Female    71 China                
 5 9kvTLo         Bay          Pencost     Male      21 China                
 6 nMJKVh         Lora         Durbann     Female    55 Brazil               
 7 8IPFPE         Rand         Bram        Male      73 Ivory Coast          
 8 pqixbY         Perceval     Dallosso    Male      36 Vietnam              
 9 QNAs2R         Aleda        Pigram      Female    35 Palestinian Territory
10 3jmudz         Burlie       Schustl     Male      13 Thailand             
# ℹ 98,609 more rows
# ℹ 10 more variables: `Airport Name` <chr>, `Airport Country Code` <chr>,
#   `Country Name` <chr>, `Airport Continent` <chr>, Continents <chr>,
#   `Departure Date` <chr>, `Arrival Airport` <chr>, `Pilot Name` <chr>,
#   `Flight Status` <chr>, New_Age <dbl>
…
# A tibble: 1 × 4
  Departure_Date_start Departure_Date_end Age_median Age_mean
  <date>               <date>                  <dbl>    <dbl>
1 2022-01-01           2022-12-30                 46     45.5

6.2.1.5 arrange() – Sort rows by a column

arrange(data, desc(Age))

# A tibble: 98,619 × 15
   `Passenger ID` `First Name` `Last Name` Gender   Age Nationality   
   <chr>          <chr>        <chr>       <chr>  <dbl> <chr>         
 1 to75jW         Pamella      Eaden       Female    90 Indonesia     
 2 Zlsjqw         Sydney       MacGhee     Male      90 Guatemala     
 3 aogYWd         Vernen       Ivakhnov    Male      90 China         
 4 X0basI         Mariann      Moogan      Female    90 Philippines   
 5 N7DLfQ         Jermaine     Escott      Male      90 Portugal      
 6 fZhPqR         Valdemar     Whate       Male      90 Brazil        
 7 usnzLP         Raul         Mantha      Male      90 Argentina     
 8 L49UDI         Neall        Zamudio     Male      90 Czech Republic
 9 L1ZBXS         Anthea       Blodget     Female    90 Indonesia     
10 CjAY9o         Valene       Megarry     Female    90 Indonesia     
# ℹ 98,609 more rows
# ℹ 9 more variables: `Airport Name` <chr>, `Airport Country Code` <chr>,
#   `Country Name` <chr>, `Airport Continent` <chr>, Continents <chr>,
#   `Departure Date` <chr>, `Arrival Airport` <chr>, `Pilot Name` <chr>,
#   `Flight Status` <chr>

6.2.1.6 group_by() – Group data for grouped operations

This fucntion takes an existing tibble and converts it into a grouped tibble where operations are performed “by group”. ungroup() removes grouping.

customers_grouped <- data |> group_by(Continents )
customers_grouped

# A tibble: 98,619 × 15
# Groups:   Continents [6]
   `Passenger ID` `First Name` `Last Name` Gender   Age Nationality          
   <chr>          <chr>        <chr>       <chr>  <dbl> <chr>                
 1 ABVWIg         Edithe       Leggis      Female    62 Japan                
 2 jkXXAX         Elwood       Catt        Male      62 Nicaragua            
 3 CdUz2g         Darby        Felgate     Male      67 Russia               
 4 BRS38V         Dominica     Pyle        Female    71 China                
 5 9kvTLo         Bay          Pencost     Male      21 China                
 6 nMJKVh         Lora         Durbann     Female    55 Brazil               
 7 8IPFPE         Rand         Bram        Male      73 Ivory Coast          
 8 pqixbY         Perceval     Dallosso    Male      36 Vietnam              
 9 QNAs2R         Aleda        Pigram      Female    35 Palestinian Territory
10 3jmudz         Burlie       Schustl     Male      13 Thailand             
# ℹ 98,609 more rows
# ℹ 9 more variables: `Airport Name` <chr>, `Airport Country Code` <chr>,
#   `Country Name` <chr>, `Airport Continent` <chr>, Continents <chr>,
#   `Departure Date` <chr>, `Arrival Airport` <chr>, `Pilot Name` <chr>,
#   `Flight Status` <chr>
…
6.2.1.7 rename() – Change column names

data <- rename(data,  Passenger_ID = `Passenger ID`,
       Airport_code = `Airport Country Code` ) # new_name = old_name
data

# A tibble: 98,619 × 15
   Passenger_ID `First Name` `Last Name` Gender   Age Nationality `Airport Name`
   <chr>        <chr>        <chr>       <chr>  <dbl> <chr>       <chr>         
 1 ABVWIg       Edithe       Leggis      Female    62 Japan       Coldfoot Airp…
 2 jkXXAX       Elwood       Catt        Male      62 Nicaragua   Kugluktuk Air…
 3 CdUz2g       Darby        Felgate     Male      67 Russia      Grenoble-Isèr…
 4 BRS38V       Dominica     Pyle        Female    71 China       Ottawa / Gati…
 5 9kvTLo       Bay          Pencost     Male      21 China       Gillespie Fie…
 6 nMJKVh       Lora         Durbann     Female    55 Brazil      Coronel Horác…
 7 8IPFPE       Rand         Bram        Male      73 Ivory Coast Duxford Aerod…
 8 pqixbY       Perceval     Dallosso    Male      36 Vietnam     Maestro Wilso…
 9 QNAs2R       Aleda        Pigram      Female    35 Palestinia… Venice Marco …
10 3jmudz       Burlie       Schustl     Male      13 Thailand    Vermilion Air…
# ℹ 98,609 more rows
# ℹ 8 more variables: Airport_code <chr>, `Country Name` <chr>,
#   `Airport Continent` <chr>, Continents <chr>, `Departure Date` <chr>,
#   `Arrival Airport` <chr>, `Pilot Name` <chr>, `Flight Status` <chr>
…
# A tibble: 1 × 1
  Age_mean
     <dbl>
1     43.9

data_new |>
  filter(Nationality == "Sri Lanka") |>
  group_by(Gender) |>
  filter(Age > 45) |>
  arrange(desc(`Departure Date`))

# A tibble: 65 × 15
# Groups:   Gender [2]
   `Passenger ID` `First Name` `Last Name` Gender   Age Nationality
   <chr>          <chr>        <chr>       <chr>  <dbl> <chr>      
 1 Garp7s         Elwood       Seczyk      Male      61 Sri Lanka  
 2 bmMaNv         Mellie       Werrett     Female    76 Sri Lanka  
 3 W9kjm9         Lewes        Gollard     Male      75 Sri Lanka  
 4 C5sSaq         Jose         Duffit      Male      87 Sri Lanka  
 5 YpH6kH         Xenos        McEntagart  Male      71 Sri Lanka  
 6 lXSEsW         Ad           Fernihough  Male      48 Sri Lanka  
 7 5OPpWn         Marieann     Strelitzki  Female    77 Sri Lanka  
 8 oCZkZ2         Aaron        MacCaffery  Male      83 Sri Lanka  
 9 L7ut1f         Dell         Shreenan    Male      62 Sri Lanka  
10 soCbR1         Matthieu     Matches     Male      47 Sri Lanka  
# ℹ 55 more rows
# ℹ 9 more variables: `Airport Name` <chr>, `Airport Country Code` <chr>,
#   `Country Name` <chr>, `Airport Continent` <chr>, Continents <chr>,
#   `Departure Date` <date>, `Arrival Airport` <chr>, `Pilot Name` <chr>,
#   `Flight Status` <chr>
