7 Data Visualization – Getting Started with R for Economists
…
Rows: 464 Columns: 9
── Column specification ────────────────────────────────────────────────────────
Delimiter: ","
chr (2): Country, Code
dbl (7): Year, GDP, Growth, CPI, Imports, Exports, Population

ℹ Use `spec()` to retrieve the full column specification for this data.
ℹ Specify the column types or set `show_col_types = FALSE` to quiet this message.

SLeconomy <- SAeconomy_data |>
  filter(Country == "Sri Lanka")

SLeconomy

# A tibble: 58 × 9
   Country   Code   Year         GDP Growth   CPI Imports Exports Population
   <chr>     <chr> <dbl>       <dbl>  <dbl> <dbl>   <dbl>   <dbl>      <dbl>
 1 Sri Lanka LKA    1960 1409873950.  NA     1.49    32.9    30.0    9874481
 2 Sri Lanka LKA    1961 1444327731.  NA     1.50    28.5    27.5   10111646
 3 Sri Lanka LKA    1962 1434156379.   3.82  1.53    29.2    27.8   10352188
 4 Sri Lanka LKA    1963 1240672269.   2.52  1.56    27.5    25.8   10597520
 5 Sri Lanka LKA    1964 1309747899.   3.91  1.61    26.7    24.6   10849979
 6 Sri Lanka LKA    1965 1698319328.   2.54  1.62    25.5    25.9   11110828
 7 Sri Lanka LKA    1966 1751470588.   5.02  1.61    25.8    22.4   11380683
 8 Sri Lanka LKA    1967 1859465021.   6.44  1.65    23.3    20.5   11657660
 9 Sri Lanka LKA    1968 1801344538.   5.80  1.74    23.6    20.6   11937611
10 Sri Lanka LKA    1969 1965546218.   7.72  1.87    24.6    18.4   12214968
# ℹ 48 more rows
…
